<?xml version="1.0" encoding="UTF-8" standalone="no"?>
<!-- Created with Inkscape (http://www.inkscape.org/) -->

<svg
   xmlns:dc="http://purl.org/dc/elements/1.1/"
   xmlns:cc="http://creativecommons.org/ns#"
   xmlns:rdf="http://www.w3.org/1999/02/22-rdf-syntax-ns#"
   xmlns:svg="http://www.w3.org/2000/svg"
   xmlns="http://www.w3.org/2000/svg"
   xmlns:sodipodi="http://sodipodi.sourceforge.net/DTD/sodipodi-0.dtd"
   xmlns:inkscape="http://www.inkscape.org/namespaces/inkscape"
   width="325"
   height="325"
   viewBox="0 0 85.989582 85.989585"
   version="1.1"
   id="svg8"
   inkscape:version="0.92.2 (5c3e80d, 2017-08-06)"
   sodipodi:docname="logo.svg">
  <defs
     id="defs2" />
  <sodipodi:namedview
     id="base"
     pagecolor="#ffffff"
     bordercolor="#666666"
     borderopacity="1.0"
     inkscape:pageopacity="0.0"
     inkscape:pageshadow="2"
     inkscape:zoom="2.1619136"
     inkscape:cx="142.17753"
     inkscape:cy="165.13352"
     inkscape:document-units="px"
     inkscape:current-layer="layer1"
     showgrid="true"
     inkscape:window-width="1920"
     inkscape:window-height="1027"
     inkscape:window-x="-8"
     inkscape:window-y="-8"
     inkscape:window-maximized="1"
     units="px">
    <inkscape:grid
       type="xygrid"
       id="grid850"
       spacingx="0.66145833"
       spacingy="0.66145833"
       empspacing="10"
       enabled="true"
       originx="6.6145833"
       originy="6.6145833" />
  </sodipodi:namedview>
  <metadata
     id="metadata5">
    <rdf:RDF>
      <cc:Work
         rdf:about="">
        <dc:format>image/svg+xml</dc:format>
        <dc:type
           rdf:resource="http://purl.org/dc/dcmitype/StillImage" />
        <dc:title></dc:title>
      </cc:Work>
    </rdf:RDF>
  </metadata>
  <g
     inkscape:label="Icon"
     inkscape:groupmode="layer"
     id="layer1"
     transform="translate(0,-211.0104)">
    <path
       sodipodi:type="star"
       style="fill:#ffffb1;fill-opacity:1;fill-rule:nonzero;stroke:#000000;stroke-width:2.64583349;stroke-linecap:butt;stroke-linejoin:round;stroke-miterlimit:4;stroke-dasharray:none;stroke-opacity:1"
       id="path916"
       sodipodi:sides="16"
       sodipodi:cx="42.994793"
       sodipodi:cy="254.00519"
       sodipodi:r1="23.151043"
       sodipodi:r2="19.2906"
       sodipodi:arg1="0.78539816"
       sodipodi:arg2="0.9817477"
       inkscape:flatsided="false"
       inkscape:rounded="0"
       inkscape:randomized="0"
       d="m 59.365052,270.37545 -5.652976,-0.33071 -1.857762,5.34922 -5.096112,-2.46884 -3.763409,4.23111 -3.763409,-4.23111 -5.096112,2.46884 -1.857762,-5.34922 -5.652976,0.33071 0.330711,-5.65298 -5.349227,-1.85776 2.468839,-5.09611 -4.231107,-3.76341 4.231107,-3.76341 -2.468839,-5.09611 5.349227,-1.85776 -0.330712,-5.65298 5.652977,0.33071 1.857762,-5.34923 5.096112,2.46884 3.763409,-4.2311 3.763409,4.2311 5.096111,-2.46884 1.857763,5.34923 5.652976,-0.33071 -0.330712,5.65297 5.349228,1.85777 -2.468839,5.09611 4.231107,3.76341 -4.231107,3.76341 2.468839,5.09611 -5.349227,1.85776 z"
       inkscape:transform-center-y="-1.4464521e-005"
       inkscape:transform-center-x="-7.7860589e-006" />
    <path
       style="fill:none;fill-opacity:1;fill-rule:nonzero;stroke:#000000;stroke-width:2.64583325;stroke-linecap:round;stroke-miterlimit:4;stroke-dasharray:none;stroke-opacity:1"
       d="m 48.286458,293.29146 c 19.678644,-2.64744 34.372494,-19.43057 34.395833,-39.28649 -0.02257,-19.85651 -14.716604,-36.64051 -34.395833,-39.28804 m -10.583333,0.002 C 18.02448,217.36637 3.3306339,234.1495 3.3072924,254.00542 c 0.022569,19.85651 14.7166026,36.64052 34.3958326,39.28804"
       id="path852"
       inkscape:connector-curvature="0"
       sodipodi:nodetypes="cccccc" />
    <path
       id="path909"
       style="fill:none;stroke:#000000;stroke-width:2.64583325;stroke-linecap:round;stroke-linejoin:miter;stroke-miterlimit:4;stroke-dasharray:none;stroke-opacity:1"
       d="m 39.026042,259.29686 3.968754,-5.29167 m -3.968754,-5.29166 7.9375,10.58332"
       inkscape:connector-curvature="0" />
  </g>
</svg>
